Supervised Feature Selection • important
…
First, let’s capture the effect of the individual model terms. These terms are from the derived features in the models, such as dummy variables, spline terms, interaction columns, etc.

set.seed(382)
lm_deriv_imp <- 
  importance_perm(
    lm_fit,
    data = delivery_train,
    metrics = metric_set(mae, rsq),
    times = 50,
    type = "derived"
  )
lm_deriv_imp
#> # A tibble: 226 × 6
#>    .metric predictor             n  mean std_err importance
#>    <chr>   <chr>             <int> <dbl>   <dbl>      <dbl>
#>  1 rsq     distance_10          50 0.528 0.00655       80.5
#>  2 mae     day_Sat              50 1.09  0.0150        72.2
#>  3 mae     distance_10          50 2.20  0.0323        68.2
#>  4 mae     day_Fri              50 0.877 0.0140        62.7
#>  5 mae     day_Thu              50 0.638 0.0130        49.0
#>  6 mae     distance_09          50 0.740 0.0156        47.3
#>  7 mae     hour_08              50 0.520 0.0136        38.3
#>  8 rsq     day_Sat              50 0.118 0.00327       36.2
#>  9 rsq     hour_06_x_day_Sat    50 0.146 0.00410       35.7
#> 10 mae     hour_08_x_day_Sat    50 0.604 0.0173        34.9
#> # ℹ 216 more rows
…
