…
``` r
set.seed(382)
lm_deriv_imp <- 
  importance_perm(
    lm_fit,
    data = delivery_train,
    metrics = metric_set(mae, rsq),
    times = 50,
    type = "derived"
  )
lm_deriv_imp
#> # A tibble: 226 × 6
#>    .metric predictor             n  mean std_err importance
#>    <chr>   <chr>             <int> <dbl>   <dbl>      <dbl>
#>  1 rsq     distance_10          50 0.528 0.00655       80.5
#>  2 mae     day_Sat              50 1.09  0.0150        72.2
#>  3 mae     distance_10          50 2.20  0.0323        68.2
#>  4 mae     day_Fri              50 0.877 0.0140        62.7
#>  5 mae     day_Thu              50 0.638 0.0130        49.0
#>  6 mae     distance_09          50 0.740 0.0156        47.3
#>  7 mae     hour_08              50 0.520 0.0136        38.3
#>  8 rsq     day_Sat              50 0.118 0.00327       36.2
#>  9 rsq     hour_06_x_day_Sat    50 0.146 0.00410       35.7
#> 10 mae     hour_08_x_day_Sat    50 0.604 0.0173        34.9
#> # ℹ 216 more rows
```
…
Note that we changed selectors in `step_spline_natural()` to use
`any_of()` instead of specific names. Any step downstream of any
filtering steps should be generalized so that there is no failure if the
columns were removed. Using `any_of()` selects these two columns *if
they still remain in the data*.

Which were removed?

``` r
selection_res <- 
    tidy(selection_rec, number = 1) |> 
    arrange(desc(score))

selection_res
#> # A tibble: 30 × 4
#>    terms    removed   score id                  
#>    <chr>    <lgl>     <dbl> <chr>               
#>  1 hour     FALSE   48.5    predictor_best_rCIMa
#>  2 day      FALSE   13.5    predictor_best_rCIMa
#>  3 distance FALSE   13.3    predictor_best_rCIMa
#>  4 item_10  FALSE    1.18   predictor_best_rCIMa
#>  5 item_01  FALSE    1.01   predictor_best_rCIMa
#>  6 item_24  FALSE    0.160  predictor_best_rCIMa
#>  7 item_02  FALSE    0.0676 predictor_best_rCIMa
#>  8 item_26  TRUE     0.0666 predictor_best_rCIMa
#>  9 item_03  TRUE     0.0593 predictor_best_rCIMa
#> 10 item_22  TRUE     0.0565 predictor_best_rCIMa
#> # ℹ 20 more rows
…
