Supervised Feature Selection via A Single Filter — step_predictor_retain • important
…
    Examples

library(recipes)

rec <- recipe(mpg ~ ., data = mtcars) |>
  step_predictor_retain(
    all_predictors(),
    score = cor_pearson >= 0.75 | cor_spearman >= 0.75
  )

prepped <- prep(rec)

bake(prepped, mtcars)
#> # A tibble: 32 × 5
#>      cyl  disp    hp    wt   mpg
#>    <dbl> <dbl> <dbl> <dbl> <dbl>
#>  1     6  160    110  2.62  21  
#>  2     6  160    110  2.88  21  
#>  3     4  108     93  2.32  22.8
#>  4     6  258    110  3.22  21.4
#>  5     8  360    175  3.44  18.7
#>  6     6  225    105  3.46  18.1
#>  7     8  360    245  3.57  14.3
#>  8     4  147.    62  3.19  24.4
#>  9     4  141.    95  3.15  22.8
#> 10     6  168.   123  3.44  19.2
#> # ℹ 22 more rows
…
