Compute permutation-based predictor importance — importance_perm • important
…
  set.seed(39)
  deriv_res <- importance_perm(lr_fit, data = dat_tr, type = "derived",
                               size = 100, times = 3)
  deriv_res
}
#> 
#> Attaching package: ‘modeldata’
#> The following object is masked from ‘package:datasets’:
#> 
#>     penguins
#> # A tibble: 24 × 6
#>    .metric     predictor     n    mean std_err importance
#>    <chr>       <chr>     <int>   <dbl>   <dbl>      <dbl>
#>  1 accuracy    B             3  0.207  0.00333     62.0  
#>  2 brier_class B             3  0.165  0.0132      12.5  
#>  3 roc_auc     B             3  0.229  0.0191      12.0  
#>  4 brier_class A             3  0.127  0.0226       5.64 
#>  5 roc_auc     A             3  0.153  0.0402       3.81 
#>  6 accuracy    A             3  0.16   0.0451       3.55 
#>  7 brier_class A_x_B         3  0.0328 0.0128       2.56 
#>  8 roc_auc     A_x_B         3  0.0653 0.0287       2.28 
#>  9 accuracy    A_x_B         3  0.07   0.0351       1.99 
#> 10 accuracy    PC1           3 -0.03   0.0436      -0.688
#> # ℹ 14 more rows
…
